{ "height":3,
 "infinite":false,
 "layers":[
        {
         "data":[1, 1, 1, 1, 1, 2, 2, 2, 2, 2, 7, 7, 7, 7, 7],
         "height":3,
         "id":1,
         "name":"Kachelebene 1",
         "opacity":1,
         "type":"tilelayer",
         "visible":true,
         "width":5,
         "x":0,
         "y":0
        }],
 "nextlayerid":2,
 "nextobjectid":1,
 "orientation":"orthogonal",
 "renderorder":"right-down",
 "tiledversion":"1.2.4",
 "tileheight":32,
 "tilesets":[
        {
         "firstgid":1,
         "source":"templateMafia32x32.json"
        }],
 "tilewidth":32,
 "type":"map",
 "version":1.2,
 "width":5
}